[api-updater (non-obsolete-error-filter)] 04-03-2022 15:51:02 : Starting /Applications/Unity/Hub/Editor/2020.3.14f1/Unity.app/Contents/Tools/ScriptUpdater/APIUpdater.NonObsoleteApiUpdaterDetector.exe
[api-updater (non-obsolete-error-filter)] 
----------------------------------
jit/startup time      : 574,016ms
moved types parse time: 64ms
candidates parse time : 1ms
C# parse time         : 351ms
candidates check time : 50ms
console write time    : 1ms

[api-updater (non-obsolete-error-filter)] 04-03-2022 19:26:05 : Starting /Applications/Unity/Hub/Editor/2020.3.14f1/Unity.app/Contents/Tools/ScriptUpdater/APIUpdater.NonObsoleteApiUpdaterDetector.exe
[api-updater (non-obsolete-error-filter)] 
----------------------------------
jit/startup time      : 192,984ms
moved types parse time: 55ms
candidates parse time : 1ms
C# parse time         : 298ms
candidates check time : 54ms
console write time    : 0ms

[api-updater (non-obsolete-error-filter)] 08-03-2022 12:33:28 : Starting /Applications/Unity/Hub/Editor/2020.3.14f1/Unity.app/Contents/Tools/ScriptUpdater/APIUpdater.NonObsoleteApiUpdaterDetector.exe
[api-updater (non-obsolete-error-filter)] 
----------------------------------
jit/startup time      : 328,992ms
moved types parse time: 121ms
candidates parse time : 9ms
C# parse time         : 628ms
candidates check time : 108ms
console write time    : 1ms

[api-updater (non-obsolete-error-filter)] 08-03-2022 12:35:27 : Starting /Applications/Unity/Hub/Editor/2020.3.14f1/Unity.app/Contents/Tools/ScriptUpdater/APIUpdater.NonObsoleteApiUpdaterDetector.exe
[api-updater (non-obsolete-error-filter)] 
----------------------------------
jit/startup time      : 520,904ms
moved types parse time: 314ms
candidates parse time : 22ms
C# parse time         : 1162ms
candidates check time : 199ms
console write time    : 3ms

[api-updater (non-obsolete-error-filter)] 08-03-2022 12:41:02 : Starting /Applications/Unity/Hub/Editor/2020.3.14f1/Unity.app/Contents/Tools/ScriptUpdater/APIUpdater.NonObsoleteApiUpdaterDetector.exe
[api-updater (non-obsolete-error-filter)] 
----------------------------------
jit/startup time      : 354,407ms
moved types parse time: 159ms
candidates parse time : 4ms
C# parse time         : 860ms
candidates check time : 150ms
console write time    : 2ms

[api-updater (non-obsolete-error-filter)] 08-03-2022 12:51:02 : Starting /Applications/Unity/Hub/Editor/2020.3.14f1/Unity.app/Contents/Tools/ScriptUpdater/APIUpdater.NonObsoleteApiUpdaterDetector.exe
[api-updater (non-obsolete-error-filter)] 
----------------------------------
jit/startup time      : 169,582ms
moved types parse time: 64ms
candidates parse time : 1ms
C# parse time         : 356ms
candidates check time : 53ms
console write time    : 1ms

[api-updater (non-obsolete-error-filter)] 08-03-2022 13:11:20 : Starting /Applications/Unity/Hub/Editor/2020.3.14f1/Unity.app/Contents/Tools/ScriptUpdater/APIUpdater.NonObsoleteApiUpdaterDetector.exe
[api-updater (non-obsolete-error-filter)] 
----------------------------------
jit/startup time      : 333,67ms
moved types parse time: 156ms
candidates parse time : 3ms
C# parse time         : 791ms
candidates check time : 129ms
console write time    : 3ms

[api-updater (non-obsolete-error-filter)] 08-03-2022 17:29:42 : Starting /Applications/Unity/Hub/Editor/2020.3.14f1/Unity.app/Contents/Tools/ScriptUpdater/APIUpdater.NonObsoleteApiUpdaterDetector.exe
[api-updater (non-obsolete-error-filter)] 
----------------------------------
jit/startup time      : 1271,945ms
moved types parse time: 550ms
candidates parse time : 6ms
C# parse time         : 2286ms
candidates check time : 336ms
console write time    : 1ms

[api-updater (non-obsolete-error-filter)] 09-03-2022 9:59:48 : Starting /Applications/Unity/Hub/Editor/2020.3.14f1/Unity.app/Contents/Tools/ScriptUpdater/APIUpdater.NonObsoleteApiUpdaterDetector.exe
[api-updater (non-obsolete-error-filter)] 
----------------------------------
jit/startup time      : 242,169ms
moved types parse time: 62ms
candidates parse time : 1ms
C# parse time         : 354ms
candidates check time : 52ms
console write time    : 1ms

[api-updater (non-obsolete-error-filter)] 09-03-2022 10:32:56 : Starting /Applications/Unity/Hub/Editor/2020.3.14f1/Unity.app/Contents/Tools/ScriptUpdater/APIUpdater.NonObsoleteApiUpdaterDetector.exe
[api-updater (non-obsolete-error-filter)] 
----------------------------------
jit/startup time      : 195,058ms
moved types parse time: 64ms
candidates parse time : 1ms
C# parse time         : 354ms
candidates check time : 56ms
console write time    : 0ms

[api-updater (non-obsolete-error-filter)] 10-03-2022 13:52:24 : Starting /Applications/Unity/Hub/Editor/2020.3.14f1/Unity.app/Contents/Tools/ScriptUpdater/APIUpdater.NonObsoleteApiUpdaterDetector.exe
[api-updater (non-obsolete-error-filter)] 
----------------------------------
jit/startup time      : 189,883ms
moved types parse time: 49ms
candidates parse time : 1ms
C# parse time         : 296ms
candidates check time : 39ms
console write time    : 1ms

[api-updater (non-obsolete-error-filter)] 10-03-2022 18:37:24 : Starting /Applications/Unity/Hub/Editor/2020.3.14f1/Unity.app/Contents/Tools/ScriptUpdater/APIUpdater.NonObsoleteApiUpdaterDetector.exe
[api-updater (non-obsolete-error-filter)] 
----------------------------------
jit/startup time      : 505,612ms
moved types parse time: 213ms
candidates parse time : 7ms
C# parse time         : 1086ms
candidates check time : 183ms
console write time    : 2ms

[api-updater (non-obsolete-error-filter)] 11-03-2022 0:08:34 : Starting /Applications/Unity/Hub/Editor/2020.3.14f1/Unity.app/Contents/Tools/ScriptUpdater/APIUpdater.NonObsoleteApiUpdaterDetector.exe
[api-updater (non-obsolete-error-filter)] 
----------------------------------
jit/startup time      : 220,65ms
moved types parse time: 59ms
candidates parse time : 1ms
C# parse time         : 344ms
candidates check time : 34ms
console write time    : 0ms

[api-updater (non-obsolete-error-filter)] 11-03-2022 0:31:49 : Starting /Applications/Unity/Hub/Editor/2020.3.14f1/Unity.app/Contents/Tools/ScriptUpdater/APIUpdater.NonObsoleteApiUpdaterDetector.exe
[api-updater (non-obsolete-error-filter)] 
----------------------------------
jit/startup time      : 995,551ms
moved types parse time: 349ms
candidates parse time : 27ms
C# parse time         : 1833ms
candidates check time : 228ms
console write time    : 2ms

[api-updater (non-obsolete-error-filter)] 11-03-2022 12:33:58 : Starting /Applications/Unity/Hub/Editor/2020.3.14f1/Unity.app/Contents/Tools/ScriptUpdater/APIUpdater.NonObsoleteApiUpdaterDetector.exe
[api-updater (non-obsolete-error-filter)] 
----------------------------------
jit/startup time      : 213,878ms
moved types parse time: 76ms
candidates parse time : 1ms
C# parse time         : 349ms
candidates check time : 48ms
console write time    : 0ms

[api-updater (non-obsolete-error-filter)] 18-03-2022 10:38:39 : Starting /Applications/Unity/Hub/Editor/2020.3.14f1/Unity.app/Contents/Tools/ScriptUpdater/APIUpdater.NonObsoleteApiUpdaterDetector.exe
[api-updater (non-obsolete-error-filter)] 
----------------------------------
jit/startup time      : 247,203ms
moved types parse time: 55ms
candidates parse time : 1ms
C# parse time         : 378ms
candidates check time : 40ms
console write time    : 1ms

[api-updater (non-obsolete-error-filter)] 18-03-2022 11:18:08 : Starting /Applications/Unity/Hub/Editor/2020.3.14f1/Unity.app/Contents/Tools/ScriptUpdater/APIUpdater.NonObsoleteApiUpdaterDetector.exe
[api-updater (non-obsolete-error-filter)] 
----------------------------------
jit/startup time      : 285,513ms
moved types parse time: 118ms
candidates parse time : 14ms
C# parse time         : 578ms
candidates check time : 97ms
console write time    : 1ms

[api-updater (non-obsolete-error-filter)] 18-03-2022 11:18:27 : Starting /Applications/Unity/Hub/Editor/2020.3.14f1/Unity.app/Contents/Tools/ScriptUpdater/APIUpdater.NonObsoleteApiUpdaterDetector.exe
[api-updater (non-obsolete-error-filter)] 
----------------------------------
jit/startup time      : 132,166ms
moved types parse time: 85ms
candidates parse time : 14ms
C# parse time         : 489ms
candidates check time : 79ms
console write time    : 0ms

[api-updater (non-obsolete-error-filter)] 21-03-2022 0:11:41 : Starting /Applications/Unity/Hub/Editor/2020.3.14f1/Unity.app/Contents/Tools/ScriptUpdater/APIUpdater.NonObsoleteApiUpdaterDetector.exe
[api-updater (non-obsolete-error-filter)] 
----------------------------------
jit/startup time      : 245,397ms
moved types parse time: 54ms
candidates parse time : 0ms
C# parse time         : 312ms
candidates check time : 38ms
console write time    : 1ms

[api-updater (non-obsolete-error-filter)] 21-03-2022 0:12:44 : Starting /Applications/Unity/Hub/Editor/2020.3.14f1/Unity.app/Contents/Tools/ScriptUpdater/APIUpdater.NonObsoleteApiUpdaterDetector.exe
[api-updater (non-obsolete-error-filter)] 
----------------------------------
jit/startup time      : 162,361ms
moved types parse time: 73ms
candidates parse time : 0ms
C# parse time         : 264ms
candidates check time : 35ms
console write time    : 0ms

[api-updater (non-obsolete-error-filter)] 21-03-2022 19:23:21 : Starting /Applications/Unity/Hub/Editor/2020.3.14f1/Unity.app/Contents/Tools/ScriptUpdater/APIUpdater.NonObsoleteApiUpdaterDetector.exe
[api-updater (non-obsolete-error-filter)] 
----------------------------------
jit/startup time      : 224,556ms
moved types parse time: 87ms
candidates parse time : 1ms
C# parse time         : 285ms
candidates check time : 39ms
console write time    : 0ms

[api-updater (non-obsolete-error-filter)] 25-03-2022 9:57:19 : Starting /Applications/Unity/Hub/Editor/2020.3.14f1/Unity.app/Contents/Tools/ScriptUpdater/APIUpdater.NonObsoleteApiUpdaterDetector.exe
[api-updater (non-obsolete-error-filter)] 
----------------------------------
jit/startup time      : 222,841ms
moved types parse time: 68ms
candidates parse time : 13ms
C# parse time         : 369ms
candidates check time : 46ms
console write time    : 1ms

[api-updater (non-obsolete-error-filter)] 25-03-2022 9:57:43 : Starting /Applications/Unity/Hub/Editor/2020.3.14f1/Unity.app/Contents/Tools/ScriptUpdater/APIUpdater.NonObsoleteApiUpdaterDetector.exe
[api-updater (non-obsolete-error-filter)] 
----------------------------------
jit/startup time      : 193,528ms
moved types parse time: 61ms
candidates parse time : 1ms
C# parse time         : 373ms
candidates check time : 37ms
console write time    : 1ms

[api-updater (non-obsolete-error-filter)] 25-03-2022 10:04:11 : Starting /Applications/Unity/Hub/Editor/2020.3.14f1/Unity.app/Contents/Tools/ScriptUpdater/APIUpdater.NonObsoleteApiUpdaterDetector.exe
[api-updater (non-obsolete-error-filter)] 
----------------------------------
jit/startup time      : 196,573ms
moved types parse time: 59ms
candidates parse time : 1ms
C# parse time         : 292ms
candidates check time : 40ms
console write time    : 0ms

[api-updater (non-obsolete-error-filter)] 25-03-2022 10:05:20 : Starting /Applications/Unity/Hub/Editor/2020.3.14f1/Unity.app/Contents/Tools/ScriptUpdater/APIUpdater.NonObsoleteApiUpdaterDetector.exe
[api-updater (non-obsolete-error-filter)] 
----------------------------------
jit/startup time      : 171,371ms
moved types parse time: 75ms
candidates parse time : 1ms
C# parse time         : 346ms
candidates check time : 42ms
console write time    : 0ms

[api-updater (non-obsolete-error-filter)] 25-03-2022 12:48:56 : Starting /Applications/Unity/Hub/Editor/2020.3.14f1/Unity.app/Contents/Tools/ScriptUpdater/APIUpdater.NonObsoleteApiUpdaterDetector.exe
[api-updater (non-obsolete-error-filter)] 
----------------------------------
jit/startup time      : 196,254ms
moved types parse time: 75ms
candidates parse time : 1ms
C# parse time         : 319ms
candidates check time : 32ms
console write time    : 1ms

[api-updater (non-obsolete-error-filter)] 25-03-2022 12:49:15 : Starting /Applications/Unity/Hub/Editor/2020.3.14f1/Unity.app/Contents/Tools/ScriptUpdater/APIUpdater.NonObsoleteApiUpdaterDetector.exe
[api-updater (non-obsolete-error-filter)] 
----------------------------------
jit/startup time      : 95,587ms
moved types parse time: 72ms
candidates parse time : 1ms
C# parse time         : 246ms
candidates check time : 26ms
console write time    : 0ms

[api-updater (non-obsolete-error-filter)] 26-03-2022 10:20:30 : Starting /Applications/Unity/Hub/Editor/2020.3.14f1/Unity.app/Contents/Tools/ScriptUpdater/APIUpdater.NonObsoleteApiUpdaterDetector.exe
[api-updater (non-obsolete-error-filter)] 
----------------------------------
jit/startup time      : 149,462ms
moved types parse time: 48ms
candidates parse time : 0ms
C# parse time         : 258ms
candidates check time : 30ms
console write time    : 0ms

[api-updater (non-obsolete-error-filter)] 26-03-2022 10:22:11 : Starting /Applications/Unity/Hub/Editor/2020.3.14f1/Unity.app/Contents/Tools/ScriptUpdater/APIUpdater.NonObsoleteApiUpdaterDetector.exe
[api-updater (non-obsolete-error-filter)] 
----------------------------------
jit/startup time      : 73,793ms
moved types parse time: 42ms
candidates parse time : 1ms
C# parse time         : 220ms
candidates check time : 27ms
console write time    : 0ms

[api-updater (non-obsolete-error-filter)] 26-03-2022 10:22:46 : Starting /Applications/Unity/Hub/Editor/2020.3.14f1/Unity.app/Contents/Tools/ScriptUpdater/APIUpdater.NonObsoleteApiUpdaterDetector.exe
[api-updater (non-obsolete-error-filter)] 
----------------------------------
jit/startup time      : 102,076ms
moved types parse time: 60ms
candidates parse time : 1ms
C# parse time         : 254ms
candidates check time : 27ms
console write time    : 0ms

[api-updater (non-obsolete-error-filter)] 26-03-2022 10:46:53 : Starting /Applications/Unity/Hub/Editor/2020.3.14f1/Unity.app/Contents/Tools/ScriptUpdater/APIUpdater.NonObsoleteApiUpdaterDetector.exe
[api-updater (non-obsolete-error-filter)] 
----------------------------------
jit/startup time      : 163,494ms
moved types parse time: 60ms
candidates parse time : 1ms
C# parse time         : 341ms
candidates check time : 40ms
console write time    : 0ms

[api-updater (non-obsolete-error-filter)] 27-03-2022 8:34:34 : Starting /Applications/Unity/Hub/Editor/2020.3.14f1/Unity.app/Contents/Tools/ScriptUpdater/APIUpdater.NonObsoleteApiUpdaterDetector.exe
[api-updater (non-obsolete-error-filter)] 
----------------------------------
jit/startup time      : 181,958ms
moved types parse time: 57ms
candidates parse time : 1ms
C# parse time         : 309ms
candidates check time : 45ms
console write time    : 1ms

[api-updater (non-obsolete-error-filter)] 27-03-2022 8:34:39 : Starting /Applications/Unity/Hub/Editor/2020.3.14f1/Unity.app/Contents/Tools/ScriptUpdater/APIUpdater.NonObsoleteApiUpdaterDetector.exe
[api-updater (non-obsolete-error-filter)] 
----------------------------------
jit/startup time      : 93,048ms
moved types parse time: 43ms
candidates parse time : 1ms
C# parse time         : 227ms
candidates check time : 37ms
console write time    : 0ms

[api-updater (non-obsolete-error-filter)] 27-03-2022 8:36:34 : Starting /Applications/Unity/Hub/Editor/2020.3.14f1/Unity.app/Contents/Tools/ScriptUpdater/APIUpdater.NonObsoleteApiUpdaterDetector.exe
[api-updater (non-obsolete-error-filter)] 
----------------------------------
jit/startup time      : 148,727ms
moved types parse time: 53ms
candidates parse time : 1ms
C# parse time         : 291ms
candidates check time : 63ms
console write time    : 1ms

[api-updater (non-obsolete-error-filter)] 27-03-2022 8:53:36 : Starting /Applications/Unity/Hub/Editor/2020.3.14f1/Unity.app/Contents/Tools/ScriptUpdater/APIUpdater.NonObsoleteApiUpdaterDetector.exe
[api-updater (non-obsolete-error-filter)] 
----------------------------------
jit/startup time      : 172,678ms
moved types parse time: 64ms
candidates parse time : 1ms
C# parse time         : 280ms
candidates check time : 37ms
console write time    : 0ms

[api-updater (non-obsolete-error-filter)] 27-03-2022 8:53:49 : Starting /Applications/Unity/Hub/Editor/2020.3.14f1/Unity.app/Contents/Tools/ScriptUpdater/APIUpdater.NonObsoleteApiUpdaterDetector.exe
[api-updater (non-obsolete-error-filter)] 
----------------------------------
jit/startup time      : 109,668ms
moved types parse time: 53ms
candidates parse time : 1ms
C# parse time         : 272ms
candidates check time : 27ms
console write time    : 0ms

[api-updater (non-obsolete-error-filter)] 27-03-2022 8:56:40 : Starting /Applications/Unity/Hub/Editor/2020.3.14f1/Unity.app/Contents/Tools/ScriptUpdater/APIUpdater.NonObsoleteApiUpdaterDetector.exe
[api-updater (non-obsolete-error-filter)] 
----------------------------------
jit/startup time      : 152,385ms
moved types parse time: 56ms
candidates parse time : 1ms
C# parse time         : 281ms
candidates check time : 35ms
console write time    : 1ms

[api-updater (non-obsolete-error-filter)] 28-03-2022 10:40:13 : Starting /Applications/Unity/Hub/Editor/2020.3.14f1/Unity.app/Contents/Tools/ScriptUpdater/APIUpdater.NonObsoleteApiUpdaterDetector.exe
[api-updater (non-obsolete-error-filter)] 
----------------------------------
jit/startup time      : 222,134ms
moved types parse time: 56ms
candidates parse time : 1ms
C# parse time         : 324ms
candidates check time : 30ms
console write time    : 0ms

[api-updater (non-obsolete-error-filter)] 28-03-2022 11:47:06 : Starting /Applications/Unity/Hub/Editor/2020.3.14f1/Unity.app/Contents/Tools/ScriptUpdater/APIUpdater.NonObsoleteApiUpdaterDetector.exe
[api-updater (non-obsolete-error-filter)] 
----------------------------------
jit/startup time      : 223,785ms
moved types parse time: 70ms
candidates parse time : 1ms
C# parse time         : 308ms
candidates check time : 36ms
console write time    : 0ms

[api-updater (non-obsolete-error-filter)] 28-03-2022 13:16:21 : Starting /Applications/Unity/Hub/Editor/2020.3.14f1/Unity.app/Contents/Tools/ScriptUpdater/APIUpdater.NonObsoleteApiUpdaterDetector.exe
[api-updater (non-obsolete-error-filter)] 
----------------------------------
jit/startup time      : 292,918ms
moved types parse time: 120ms
candidates parse time : 3ms
C# parse time         : 606ms
candidates check time : 97ms
console write time    : 1ms

[api-updater (non-obsolete-error-filter)] 30-03-2022 23:16:13 : Starting /Applications/Unity/Hub/Editor/2020.3.14f1/Unity.app/Contents/Tools/ScriptUpdater/APIUpdater.NonObsoleteApiUpdaterDetector.exe
[api-updater (non-obsolete-error-filter)] 
----------------------------------
jit/startup time      : 224,589ms
moved types parse time: 58ms
candidates parse time : 1ms
C# parse time         : 318ms
candidates check time : 35ms
console write time    : 0ms

[api-updater (non-obsolete-error-filter)] 31-03-2022 11:07:17 : Starting /Applications/Unity/Hub/Editor/2020.3.14f1/Unity.app/Contents/Tools/ScriptUpdater/APIUpdater.NonObsoleteApiUpdaterDetector.exe
[api-updater (non-obsolete-error-filter)] 
----------------------------------
jit/startup time      : 223,013ms
moved types parse time: 60ms
candidates parse time : 1ms
C# parse time         : 331ms
candidates check time : 50ms
console write time    : 0ms

[api-updater (non-obsolete-error-filter)] 31-03-2022 11:07:55 : Starting /Applications/Unity/Hub/Editor/2020.3.14f1/Unity.app/Contents/Tools/ScriptUpdater/APIUpdater.NonObsoleteApiUpdaterDetector.exe
[api-updater (non-obsolete-error-filter)] 
----------------------------------
jit/startup time      : 245,027ms
moved types parse time: 73ms
candidates parse time : 1ms
C# parse time         : 350ms
candidates check time : 46ms
console write time    : 0ms

