%YAML 1.1
%TAG !u! tag:unity3d.com,2011:
--- !u!1045 &1
EditorBuildSettings:
  m_ObjectHideFlags: 0
  serializedVersion: 2
  m_Scenes:
  - enabled: 0
    path: Assets/Scenes/Main.unity
    guid: e1a05ce0c619b454c987a5f4bbaed4be
  - enabled: 0
    path: Assets/Scenes/Test.unity
    guid: cbe0e4dd342dd4d3588c627645154983
  - enabled: 1
    path: Assets/Scenes/Game.unity
    guid: 730069d762865487eaae064d3a1fed89
  m_configObjects: {}
